Example: dipole moments vs E · BialkaliSpectrum.jl
…
This is a more complete worked example using BialkaliSpectrum.
Let's compute various dipole moments as a function of electric field!
For simplicity, we'll do the calculation without including hyperfine structure. BialkaliSpectrum has a module BialkaliSpectrum.Toy that defines molecular parameters for an idealized molecule without hyperfine structure.
Setup
We'll start by setting up a scan of the electric field:

julia> parts = make_toy_hamiltonian_parts(8);
julia> fields = generate_fields_scan(0.0, 0.0:0.2:4.0, [[]]);
julia> spectra = get_spectra(parts, fields, df -> filter_rotational(df, [0, 1, 2]))Progress:  10%|███▉                                     |  ETA: 0:00:01Progress: 100%|█████████████████████████████████████████| Time: 0:00:00
189×13 DataFrame
 Row │ fields                             index  energy             eigenstate ⋯
     │ External…                          Int64  Complex…           SubArray…  ⋯
─────┼──────────────────────────────────────────────────────────────────────────
   1 │ ExternalFields(SphericalVector(0…      1          0.0+0.0im  ComplexF64 ⋯
   2 │ ExternalFields(SphericalVector(0…      2          2.0+0.0im  ComplexF64
   3 │ ExternalFields(SphericalVector(0…      3          2.0+0.0im  ComplexF64
   4 │ ExternalFields(SphericalVector(0…      4          2.0+0.0im  ComplexF64
   5 │ ExternalFields(SphericalVector(0…      5          6.0+0.0im  ComplexF64 ⋯
   6 │ ExternalFields(SphericalVector(0…      6          6.0+0.0im  ComplexF64
   7 │ ExternalFields(SphericalVector(0…      7          6.0+0.0im  ComplexF64
   8 │ ExternalFields(SphericalVector(0…      8          6.0+0.0im  ComplexF64
  ⋮  │                 ⋮                    ⋮            ⋮                     ⋱
 183 │ ExternalFields(SphericalVector(0…      3      1.26985+0.0im  ComplexF64 ⋯
 184 │ ExternalFields(SphericalVector(0…      4      2.60238+0.0im  ComplexF64
 185 │ ExternalFields(SphericalVector(0…      5      5.62877+0.0im  ComplexF64
 186 │ ExternalFields(SphericalVector(0…      6      5.62877+0.0im  ComplexF64
 187 │ ExternalFields(SphericalVector(0…      7      6.12299+0.0im  ComplexF64 ⋯
 188 │ ExternalFields(SphericalVector(0…      8      6.12299+0.0im  ComplexF64
 189 │ ExternalFields(SphericalVector(0…      9      6.41283+0.0im  ComplexF64
                                                 10 columns and 174 rows omitted
…
