…
```jldoctest bialkali
julia> parts = make_krb_hamiltonian_parts(5);

julia> fields = ExternalFields(545.9, 0.0, []) # B = 545.9 G, E = 0, no optical fields
ExternalFields(SphericalVector(545.9, 0.0, 0.0), SphericalVector(0.0, 0.0, 0.0), SphericalVector[])
```

### Finding the energy levels

Next, we call [`get_spectrum`](@ref), which diagonalizes the Hamiltonian
(constructed from `parts`) at `fields`.

```jldoctest bialkali
julia> spectrum = get_spectrum(parts, fields)
1296×13 DataFrame
  Row │ fields                             index  energy        eigenstate     ⋯
      │ External…                          Int64  Float64       SubArray…      ⋯
──────┼─────────────────────────────────────────────────────────────────────────
    1 │ ExternalFields(SphericalVector(5…      1     -1.6672    ComplexF64[3.9 ⋯
    2 │ ExternalFields(SphericalVector(5…      2     -1.53563   ComplexF64[-8.
    3 │ ExternalFields(SphericalVector(5…      3     -1.40404   ComplexF64[4.0
    4 │ ExternalFields(SphericalVector(5…      4     -1.27245   ComplexF64[-6.
    5 │ ExternalFields(SphericalVector(5…      5     -1.14086   ComplexF64[0.0 ⋯
    6 │ ExternalFields(SphericalVector(5…      6     -1.00925   ComplexF64[0.0
    7 │ ExternalFields(SphericalVector(5…      7     -0.914827  ComplexF64[4.8
    8 │ ExternalFields(SphericalVector(5…      8     -0.877637  ComplexF64[0.0
  ⋮   │                 ⋮                    ⋮         ⋮                       ⋱
 1290 │ ExternalFields(SphericalVector(5…   1290  33420.2       ComplexF64[0.0 ⋯
 1291 │ ExternalFields(SphericalVector(5…   1291  33420.2       ComplexF64[2.5
 1292 │ ExternalFields(SphericalVector(5…   1292  33420.3       ComplexF64[0.0
 1293 │ ExternalFields(SphericalVector(5…   1293  33420.3       ComplexF64[0.0
 1294 │ ExternalFields(SphericalVector(5…   1294  33420.3       ComplexF64[0.0 ⋯
 1295 │ ExternalFields(SphericalVector(5…   1295  33420.3       ComplexF64[0.0
 1296 │ ExternalFields(SphericalVector(5…   1296  33420.4       ComplexF64[6.4
                                                10 columns and 1281 rows omitted
…
Descriptions of these fields can be found in the documentation for [`get_spectrum`](@ref).

### Working with the output DataFrame

We put the output of `get_spectrum` into a `DataFrame` because
[`DataFrames.jl`](https://dataframes.juliadata.org/stable/) provides a nice API for manipulating all of the data that comes out.
Even the simple calculation we just did, which only involves a single field
and ``N \leq 5`` rotational states, gives a decent amount of data.

`BialkaliSpectrum.jl` provides a few convenience methods for working with `DataFrame`s in the API docs at [ DataFrame helpers](@ref).
Here, we'll demonstrate a few of them:

```jldoctest bialkali
julia> filter_rotational(spectrum, 0, 0) # get only the N = 0, m_N = 0 states
36×13 DataFrame
 Row │ fields                             index  energy     eigenstate         ⋯
     │ External…                          Int64  Float64    SubArray…          ⋯
─────┼──────────────────────────────────────────────────────────────────────────
   1 │ ExternalFields(SphericalVector(5…      1  -1.6672    ComplexF64[3.97483 ⋯
   2 │ ExternalFields(SphericalVector(5…      2  -1.53563   ComplexF64[-8.1453
   3 │ ExternalFields(SphericalVector(5…      3  -1.40404   ComplexF64[4.08372
   4 │ ExternalFields(SphericalVector(5…      4  -1.27245   ComplexF64[-6.9833
   5 │ ExternalFields(SphericalVector(5…      5  -1.14086   ComplexF64[0.0-0.0 ⋯
   6 │ ExternalFields(SphericalVector(5…      6  -1.00925   ComplexF64[0.0-0.0
   7 │ ExternalFields(SphericalVector(5…      7  -0.914827  ComplexF64[4.87699
   8 │ ExternalFields(SphericalVector(5…      8  -0.877637  ComplexF64[0.0-0.0
  ⋮  │                 ⋮                    ⋮        ⋮                      ⋮  ⋱
  30 │ ExternalFields(SphericalVector(5…     30   0.92291   ComplexF64[0.0-0.0 ⋯
  31 │ ExternalFields(SphericalVector(5…     31   1.00312   ComplexF64[1.6655e
  32 │ ExternalFields(SphericalVector(5…     32   1.14082   ComplexF64[-4.7147
  33 │ ExternalFields(SphericalVector(5…     33   1.27851   ComplexF64[-2.2568
  34 │ ExternalFields(SphericalVector(5…     34   1.41619   ComplexF64[0.0-0.0 ⋯
  35 │ ExternalFields(SphericalVector(5…     35   1.55387   ComplexF64[0.0-0.0
  36 │ ExternalFields(SphericalVector(5…     36   1.69154   ComplexF64[0.0-0.0
                                                  10 columns and 21 rows omitted

julia> filter_rotational(spectrum, [1, 2, 3]) # get everything in N = 1, 2, 3
540×13 DataFrame
 Row │ fields                             index  energy    eigenstate          ⋯
     │ External…                          Int64  Float64   SubArray…           ⋯
─────┼──────────────────────────────────────────────────────────────────────────
   1 │ ExternalFields(SphericalVector(5…     37   2226.11  ComplexF64[0.0-0.0i ⋯
   2 │ ExternalFields(SphericalVector(5…     38   2226.2   ComplexF64[0.0-0.0i
   3 │ ExternalFields(SphericalVector(5…     39   2226.22  ComplexF64[0.0-0.0i
   4 │ ExternalFields(SphericalVector(5…     40   2226.28  ComplexF64[0.0-0.0i
   5 │ ExternalFields(SphericalVector(5…     41   2226.31  ComplexF64[0.0-0.0i ⋯
   6 │ ExternalFields(SphericalVector(5…     42   2226.37  ComplexF64[0.0-0.0i
   7 │ ExternalFields(SphericalVector(5…     43   2226.42  ComplexF64[0.0-0.0i
   8 │ ExternalFields(SphericalVector(5…     44   2226.44  ComplexF64[0.0-0.0i
  ⋮  │                 ⋮                    ⋮       ⋮                      ⋮   ⋱
 534 │ ExternalFields(SphericalVector(5…    570  13369.1   ComplexF64[0.0-0.0i ⋯
 535 │ ExternalFields(SphericalVector(5…    571  13369.1   ComplexF64[0.0-0.0i
 536 │ ExternalFields(SphericalVector(5…    572  13369.1   ComplexF64[0.0-0.0i
 537 │ ExternalFields(SphericalVector(5…    573  13369.1   ComplexF64[0.0-0.0i
 538 │ ExternalFields(SphericalVector(5…    574  13369.2   ComplexF64[0.0-0.0i ⋯
 539 │ ExternalFields(SphericalVector(5…    575  13369.2   ComplexF64[0.0-0.0i
 540 │ ExternalFields(SphericalVector(5…    576  13369.2   ComplexF64[0.0-0.0i
                                                 10 columns and 525 rows omitted

julia> filter_hyperfine(spectrum, -4, [1/2, 3/2]) # get m_K = -4, m_Rb = 1/2 or 3/2 states
72×13 DataFrame
 Row │ fields                             index  energy        eigenstate      ⋯
     │ External…                          Int64  Float64       SubArray…       ⋯
─────┼──────────────────────────────────────────────────────────────────────────
   1 │ ExternalFields(SphericalVector(5…      1     -1.6672    ComplexF64[3.97 ⋯
   2 │ ExternalFields(SphericalVector(5…      7     -0.914827  ComplexF64[4.87
   3 │ ExternalFields(SphericalVector(5…     37   2226.11      ComplexF64[0.0-
   4 │ ExternalFields(SphericalVector(5…     39   2226.22      ComplexF64[0.0-
   5 │ ExternalFields(SphericalVector(5…     40   2226.28      ComplexF64[0.0- ⋯
   6 │ ExternalFields(SphericalVector(5…     54   2226.87      ComplexF64[0.0-
   7 │ ExternalFields(SphericalVector(5…     56   2226.92      ComplexF64[0.0-
   8 │ ExternalFields(SphericalVector(5…     66   2227.19      ComplexF64[0.0-
  ⋮  │                 ⋮                    ⋮         ⋮                        ⋱
  66 │ ExternalFields(SphericalVector(5…    976  33417.6       ComplexF64[1.27 ⋯
  67 │ ExternalFields(SphericalVector(5…    979  33417.7       ComplexF64[-1.5
  68 │ ExternalFields(SphericalVector(5…    983  33417.7       ComplexF64[-1.1
  69 │ ExternalFields(SphericalVector(5…    984  33417.7       ComplexF64[1.47
  70 │ ExternalFields(SphericalVector(5…    988  33417.7       ComplexF64[3.47 ⋯
  71 │ ExternalFields(SphericalVector(5…    992  33417.7       ComplexF64[9.27
  72 │ ExternalFields(SphericalVector(5…    993  33417.7       ComplexF64[1.16
                                                  10 columns and 57 rows omitted
…
