Getting started · BialkaliSpectrum.jl
…
hamiltonian_partsNote that plot_transition_strengths takes parts as a parameter  (written as hamiltonian_parts in the function signature). This is a common requirement for many of the analysis functions – in this case, the method needs the dipole matrix elements contained within parts  to calculate the transition strengths.
There is another signature of plot_transition_strengths that doesn't take hamiltonian_parts as an argument. This variant assumes that you are passing in a DataFrame with the requisite fields already defined (coming from e.g., the output of transitions).

Scanning the external fields
So far, we have shown a few examples of what we can do with the spectrum calculated for some particular value of the external fields. But we often want to calculate some property of the molecules as the external fields are changed.
To do this, we will use a vector of ExternalFields instead of a single one,

julia> fields = generate_fields_scan(545.9, 0.0:1000.0:10000.0, [[]]);
This produces a Vector{ExternalFields} with a constant magnetic field of 545.9 G, a constant optical intensity of zero, and electric field strength increasing from 0 V/cm to 10 kV/cm in steps of 1 kV/cm. (This is a very coarse scan for the sake of this tutorial.)
Next, we call get_spectra to calculate the spectrum at each field configuration,

julia> spectra = get_spectra(parts, fields, df -> filter_rotational(df, [0, 1]))Progress:  18%|███████▌                                 |  ETA: 0:00:18Progress:  27%|███████████▏                             |  ETA: 0:00:17Progress:  36%|██████████████▉                          |  ETA: 0:00:15Progress:  45%|██████████████████▋                      |  ETA: 0:00:13Progress:  55%|██████████████████████▍                  |  ETA: 0:00:11Progress:  64%|██████████████████████████▏              |  ETA: 0:00:08Progress:  73%|█████████████████████████████▉           |  ETA: 0:00:06Progress:  82%|█████████████████████████████████▌       |  ETA: 0:00:04Progress:  91%|█████████████████████████████████████▎   |  ETA: 0:00:02Progress: 100%|█████████████████████████████████████████| Time: 0:00:22
1584×13 DataFrame
  Row │ fields                             index  energy       eigenstate      ⋯
      │ External…                          Int64  Float64      SubArray…       ⋯
──────┼─────────────────────────────────────────────────────────────────────────
    1 │ ExternalFields(SphericalVector(5…      1    -1.6672    ComplexF64[5.50 ⋯
    2 │ ExternalFields(SphericalVector(5…      2    -1.53563   ComplexF64[-1.3
    3 │ ExternalFields(SphericalVector(5…      3    -1.40404   ComplexF64[-3.7
    4 │ ExternalFields(SphericalVector(5…      4    -1.27245   ComplexF64[-2.2
    5 │ ExternalFields(SphericalVector(5…      5    -1.14086   ComplexF64[1.53 ⋯
    6 │ ExternalFields(SphericalVector(5…      6    -1.00925   ComplexF64[0.0+
    7 │ ExternalFields(SphericalVector(5…      7    -0.914827  ComplexF64[-5.8
    8 │ ExternalFields(SphericalVector(5…      8    -0.877637  ComplexF64[0.0+
  ⋮   │                 ⋮                    ⋮         ⋮                       ⋱
 1578 │ ExternalFields(SphericalVector(5…    138  2681.32      ComplexF64[-7.2 ⋯
 1579 │ ExternalFields(SphericalVector(5…    139  2681.38      ComplexF64[1.65
 1580 │ ExternalFields(SphericalVector(5…    140  2681.45      ComplexF64[-4.1
 1581 │ ExternalFields(SphericalVector(5…    141  2681.59      ComplexF64[1.24
 1582 │ ExternalFields(SphericalVector(5…    142  2681.74      ComplexF64[1.32 ⋯
 1583 │ ExternalFields(SphericalVector(5…    143  2681.89      ComplexF64[4.19
 1584 │ ExternalFields(SphericalVector(5…    144  2682.04      ComplexF64[6.56
                                                10 columns and 1569 rows omitted
…
